"Cell ID";"Novelty.index";"BT1_Predicted.MDI";"Nearest.Branch";"Crop.richness";"Simpson.reciprocal.index";"Semi.natural.cover";"Mean.Field.Size"
1;0,0908822982298336;39,8321638944347;"F.U.U.U";7;2,70901265043013;13,1612420168455;3,39506986819479
2;3,32582483167311;NA;NA;4;2,15887810248442;73,8156174089721;2,12663858781869
3;3,77930596171949;NA;NA;5;2,94946210592578;76,8766829423939;1,33233168794832
4;0,0405272617230299;46,5137344006312;"F.U.U.U";5;2,03068720949332;15,8958770033603;2,08207797689421
5;1,38187980579038;NA;NA;5;2,62881120062788;50,9243765325439;1,98459654124542
6;0,104490008699626;52,9537750116348;"F.U.U.U";6;3,45084187802264;19,9172538518593;2,10998512039503
7;0,361959405431987;39,5609916773811;"F.F.U.U";9;5,76859075574467;9,61647104287772;2,19264525924861
8;0,101120121203389;28,5744512569424;"F.U.U.U";6;3,92716521115309;5,69767569300009;3,86854324365529
9;0,79652835481645;65,8399122455271;"F.U.F.U";6;3,33075059242245;39,2958654948971;2,68189616670677
10;2,31431318799094;NA;NA;7;3,63541668160651;58,8783102949024;1,86067631712023
11;2,20568047570843;NA;NA;7;2,71016172323883;56,9240089549881;2,26458484016773
12;0,0767863094918996;43,1890441212856;"F.U.U.U";6;2,88632924953218;18,4176809234031;2,89183953227925
13;0,117568779822639;29,3965948779097;"F.F.U.U";6;4,23004844846032;6,91585782467062;3,06662949969626
14;1,19038997436699;79,5450906112595;"F.U.F.F";7;2,30327537518003;43,3060124543234;1,54696794011725
15;0,0675647224182269;29,7783302438415;"F.U.U.U";6;3,79613185350023;5,75459208895697;2,91266796029985
16;0,187418144334738;42,2382825690594;"F.F.U.U";7;4,2991967854555;17,2119979288312;3,43789502153144
17;0,931264162165217;69,0792485253927;"F.U.F.U";6;3,52432219639725;41,7589094823665;2,48784160695
18;0,433541342706118;57,8667291547217;"F.F.F.U";7;4,00235683294656;28,531240487381;2,72051455080076
19;0,44520263278948;54,7235166429433;"F.U.F.U";6;3,43827840243983;31,2436328665611;3,06151669961267
20;0,808181732317735;61,2173801234703;"F.U.F.U";6;3,42994150579385;37,8058057904703;4,05616694158158
21;0,158347403015861;32,6648168011043;"F.F.U.U";6;4,46165083474406;10,155652006565;3,54680175739249
22;0,378238465963425;61,3354968092696;"F.U.F.U";7;3,83912458903321;27,6298578534926;2,29500793589406
23;0,14247375370734;49,052686605422;"F.U.U.U";7;3,30762358473457;19,2292232142193;2,63136739541264
24;0,203731030861525;51,3119147611168;"F.U.F.U";7;3,04809687349184;21,7164123523768;2,66213732091379
25;0,363704002824217;48,5532378797907;"F.F.F.U";8;4,17104449816281;22,7693162842435;3,3105865988435
26;0,323850715429226;59,0715965675741;"F.U.F.U";6;3,23278726984142;28,7498902809511;2,33651717946153
27;0,476457237020776;61,5028377502375;"F.U.F.U";6;3,58590098514783;32,3748211427928;2,49054696347896
28;1,00437660993812;61,7027853955527;"F.U.F.U";6;2,74144931571261;42,0849542888677;3,45297386018159
29;0,454724111763283;49,2243318760092;"F.U.F.U";4;3,12887357775661;33,2634881599629;3,63036964441235
30;1,77546393742504;NA;NA;3;2,0341017207924;58,5868302425153;2,26473065321738
31;0,377699370338672;62,8234203358283;"F.U.F.U";6;3,16890721783512;30,4253582738662;2,12828270970132
32;0,116601277810398;41,4230090259639;"F.U.U.U";5;3,97752981121434;14,2307230185265;2,43720177805178
33;2,28116341325048;NA;NA;6;2,45453090229943;59,7466632105457;2,36948079934722
34;2,23186083001682;NA;NA;8;5,89371292672331;52,9445227851057;1,940140781518
35;3,23890969035427;NA;NA;9;6,16878656229879;61,8157932343303;1,70042904323986
36;0,484675982073914;55,5506782864439;"F.U.F.U";7;3,60601124437877;29,3684955883422;3,51560195426565
37;0,0517107558737799;38,5872557114938;"F.U.U.U";5;2,42937442251151;17,9789446560648;3,23688886578407
38;0,344946452615012;51,5050727384307;"F.U.F.U";6;2,81194935969508;28,7154732314174;3,03693196489484
39;0,0914812766404076;33,8222698841727;"F.F.U.U";7;4,09662103087318;9,45167985924327;3,50409274938539
40;0,129371835542011;45,5150082363456;"F.F.U.U";8;4,3852299927748;10,9960338855003;2,01720288034362
41;0,403783516223562;56,5705171093841;"F.U.F.U";7;2,7013596732148;27,6252223031839;2,69570139412493
42;1,0319055675202;63,9003737348412;"F.U.F.U";5;2,14804499459782;45,0462175811088;2,31252873842522
43;1,70231382082934;NA;NA;5;3,60364781698361;53,7414007515531;3,41112909968189
44;0,123381901270314;50,2184057268549;"F.U.U.U";7;3,51929753926074;18,3024212383932;2,41946543733408
45;0,194682917812226;44,1524493226279;"F.U.U.U";7;3,21914278872918;18,1942986934326;4,28631096051486
46;1,74462168951909;NA;NA;6;3,51347657943299;53,9327948702057;2,13349309735701
47;0,883598911257143;64,7017664977928;"F.U.F.U";7;3,26646053448416;38,4493043927405;2,97533417221342
48;0,267266135304983;44,1925001798473;"F.F.U.U";9;4,92167250236662;13,4263564407975;2,33513339752447
49;1,96223539478671;NA;NA;8;5,5402307236946;50,0996062364866;2,48748581238581
50;1,82766882321727;NA;NA;7;5,10994399017899;50,7796868730284;2,66246325528357
51;2,21125649139364;NA;NA;7;1,97404613671712;55,0523783280902;3,15707840625043
52;0,415600072458514;51,6950331287419;"F.U.F.U";5;3,87800780486501;30,4045069194051;3,02089760717848
53;3,55059561809548;NA;NA;6;2,24420515706844;72,0812108106125;2,22354740335105
54;2,01232395923818;NA;NA;6;3,9606713246718;56,7033400587206;2,39554779077509
55;2,12383102792923;NA;NA;6;3,77432382399195;58,3930930764041;2,06561663335675
56;1,12333395311197;67,3745886711143;"F.F.F.U";6;4,72751232565433;42,2639071640621;2,94354325065621
57;4,52065195539193;NA;NA;7;3,62014535688378;79,2610739541867;1,55920206994957
58;0,361931248990348;50,8396385715514;"F.U.F.U";5;3,44169674172402;30,2754967970284;2,99182029291517
59;0,129483448008151;40,3858234251397;"F.U.F.U";5;2,34434244825543;20,1562844142548;4,25219062118788
60;0,79763040175492;63,5665554784626;"F.F.F.U";6;4,85862734497681;35,5774801055251;2,84858659794745
61;1,39936192523706;NA;NA;5;2,54120244925385;50,7340579152745;2,62372916732927
62;1,37441951380711;NA;NA;5;3,49590750431858;50,0306298215114;2,71350743529595
63;1,08901528043563;63,3559947712519;"F.U.F.U";5;2,69505808892952;46,2562766975501;2,4948157074227
64;2,0424989130226;NA;NA;5;2,91127883907608;59,3945280781674;2,00837180882766
65;2,05806662180784;NA;NA;7;3,82512878066157;56,0025358174222;1,73399251553278
66;0,36654187931155;52,4997631439406;"F.U.F.U";6;3,25916723544084;29,2209354330622;3,13416668331516
67;0,112599900213417;34,7041785788874;"F.U.U.U";6;1,76796964306294;9,16487056096746;4,05977075756304
68;0,113972224749251;37,6848731811248;"F.U.F.U";4;2,9338444441569;20,4049794835657;3,71935451931364
69;0,73209974444164;71,6091363004611;"F.U.F.U";6;2,51722797588353;38,2270965475243;1,87112923123942
70;0,273910191747071;40,1821578902808;"F.F.U.U";5;4,56534522636292;18,5715708815472;3,22455800589962
71;0,284314493895205;50,2577254246134;"F.F.F.U";6;4,4659671516267;22,8718666037538;2,68402146269384
72;0,354445471778574;52,4020741021247;"F.U.F.U";6;3,77262426866434;28,2376278619449;2,97259975382388
73;1,04871016543332;67,8646766761718;"F.U.F.U";6;3,82795646858716;43,2804994010801;2,67453992558167
74;0,833647537727288;57,6361617763964;"F.U.F.U";5;2,56324840694345;40,9408206269303;3,50201250295854
75;0,487432801384917;66,1526077525576;"F.U.F.U";6;3,68098033732933;32,73301733567;2,10233165199217
76;0,379288200616711;45,8634080465852;"F.F.U.U";9;4,2865638099754;19,9888045174326;2,95543927669162
77;0,122074918764156;36,6914465799223;"F.U.U.U";5;3,98059672997352;14,7093068104967;2,92767860020778
78;0,192099402319325;52,7543267853825;"F.U.F.U";7;2,82998734878067;20,9942507571237;2,46837157749919
79;0,464778130450635;57,8127374296647;"F.U.F.U";5;2,21558688065397;33,8902873185363;2,42458294522067
80;0,697878763277148;58,0116080105068;"F.F.F.U";6;5,07120324479135;31,9010057490503;3,04650337985259
