RICH;SIMI;SNC;MFS;Corrections
F;F;F;F;0
F;F;F;U;0
F;F;U;F;-25
F;F;U;U;-25
F;U;F;F;10
F;U;F;U;10
F;U;U;F;15
F;U;U;U;15
U;F;F;F;10
U;F;F;U;10
U;F;U;F;-10
U;F;U;U;-10
U;U;F;F;5
U;U;F;U;5
U;U;U;F;10
U;U;U;U;10
