Variable.full.name;Variable.short.name;Unfavourable.limit;Favourable.limit;Weight
Crop richness landscape;RICH;1;7;17.7
Simpson reciprocal Index;DIV;1;7;21.9
Semi natural cover;SNC;0;40;33.8
Mean field size;MFS;3;0.5;26.6
