ID;Crop.richness;Simpson.reciprocal.index;Semi.natural.cover;Mean.Field.Size;Multi.Diversity.Index;Region
1;6;4.186408323;6.544471147;0.998284408;51;Armorique
2;5;3.146216238;9.616683582;1.409457503;32;Armorique
3;5;3.138139208;9.5015611;1.246534416;50;Armorique
4;7;4.168296919;14.85965526;1.381456065;63;Armorique
5;5;3.203235351;14.05094684;1.452288663;66;Armorique
6;4;3.276258728;11.9181838;1.272389307;26;Armorique
7;5;3.875851514;14.23492101;1.076137042;47;Armorique
8;4;3.562330967;6.73782554;1.342930469;62;Armorique
9;5;3.679838935;7.053802296;1.57400911;69;Armorique
10;6;4.060557135;8.886888722;1.054497718;40;Armorique
11;5;3.435117734;8.183387153;0.956853227;42;Armorique
12;6;3.602182215;9.818847836;1.336975333;52;Armorique
13;4;3.24269893;19.70219593;0.784415899;41;Armorique
14;5;2.746923282;5.10907707;1.595711174;50;Armorique
15;5;3.325632048;14.01536764;0.780392297;61;Armorique
16;5;3.997878531;7.457359179;1.032527112;62;Armorique
17;4;2.310070159;10.99338324;2.552098079;61;Armorique
18;4;3.521442293;3.860990893;1.509944013;83;Armorique
19;4;2.078688487;4.123839727;1.509246725;63;Armorique
20;7;3.93547091;6.583401766;1.00440358;59;Armorique
21;6;3.145388466;12.5824695;1.698778071;88;Armorique
22;4;3.215621556;3.381543895;1.672908325;31;Armorique
23;6;3.381982981;7.063933203;1.056786387;87;Armorique
24;6;3.782152618;5.743117844;1.214169246;67;Armorique
25;4;2.262747441;10.90263066;1.562212189;38;Armorique
26;4;2.680334936;16.26810874;1.118139374;57;Armorique
27;6;2.738980889;4.402671659;1.325078946;38;Armorique
28;5;3.431356541;7.277576437;1.026228239;50;Armorique
29;4;2.799933952;12.18536144;1.139002423;19;Armorique
30;4;3.931057305;12.25477238;1.205031115;80;Armorique
31;7;2.667956853;7.824977016;1.764374404;68;Armorique
32;6;3.566298289;8.646275569;1.024216913;68;Armorique
33;7;2.971092349;10.23462983;1.725872453;69;Armorique
34;5;3.037647177;16.67618518;3.129382057;65;Armorique
35;6;2.508089953;3.004559913;2.38270836;49;Armorique
36;6;3.498289023;10.25510292;2.504053884;72;Armorique
37;5;3.439598537;3.983923892;1.063059011;52;Armorique
38;6;3.190042771;8.96973887;0.970309739;51;Armorique
39;5;2.694434133;12.33565824;1.734156849;85;Armorique
40;6;3.020023996;3.667894352;1.668220907;53;Armorique
41;2;1.981352323;14.88147472;2.082500045;70;Camargue
42;3;2.064152457;9.608910388;2.036261344;43;Camargue
43;4;2.888485124;21.05818199;1.702117347;34;Camargue
44;3;2.008523485;22.08903336;2.740637591;52;Camargue
45;4;1.248231511;14.07370839;3.375044646;53;Camargue
46;3;2.225738176;28.8672592;2.743823076;56;Camargue
47;5;4.203348583;15.14143416;1.275789393;52;Camargue
48;3;1.112053406;39.34831654;1.406555317;47;Camargue
49;4;2.334850465;13.86199625;1.581717395;43;Camargue
50;5;4.019526277;13.88153887;1.95805344;69;Camargue
51;5;2.630365388;22.78872234;1.731420949;88;Camargue
52;4;1.466154743;11.96399958;2.362081203;68;Camargue
53;5;3.43770388;16.38674963;1.875795531;85;Camargue
54;2;1.200130312;17.78836808;1.789322191;46;Camargue
55;4;2.258307524;15.92887732;1.74956068;50;Camargue
56;4;3.866716056;15.00875608;1.777735678;79;Camargue
57;6;3.136600488;21.20468979;1.63376856;39;Camargue
58;2;1.115464649;11.75400883;2.048224465;71;Camargue
59;3;1.499038919;20.48156311;1.762543913;64;Camargue
60;3;1.284349215;12.87171557;1.985287159;59;Camargue
61;3;1.689881375;10.89372137;1.857292729;40;Camargue
62;5;1.889142743;17.54487521;1.944692835;68;Camargue
63;5;1.815419346;23.77482125;1.812959133;86;Camargue
64;4;2.75146626;12.2517238;2.071292575;84;Camargue
65;4;3.460555659;20.03432968;1.900921529;68;Camargue
66;3;1.339031181;13.74550817;2.152128443;88;Camargue
67;6;3.586655963;13.84896506;1.504217991;69;Camargue
68;4;1.163983229;19.02155126;1.887949704;31;Camargue
69;5;1.656449669;25.72838039;2.230268099;63;Camargue
70;3;1.38919275;20.32261336;1.972823;60;Camargue
71;3;1.691791808;15.60773919;2.399878847;60;Camargue
72;1;1;38.16619933;2.95262425;46;Camargue
73;5;3.404995128;18.80158251;2.560402009;48;Camargue
74;4;2.736993229;18.17119965;1.747987457;56;Camargue
75;2;1.757200967;21.1394622;1.819097282;66;Camargue
76;6;2.424221512;14.72051537;2.077966979;60;Camargue
77;5;1.596988915;13.41632332;2.201366508;77;Camargue
78;2;1.076175418;16.89498571;1.630867837;66;Camargue
79;4;2.627549942;13.7384493;1.800615532;38;Camargue
80;3;2.094487909;13.02895036;1.950686335;43;Camargue
81;5;3.303760444;13.20971121;2.882892502;56;Coteaux
82;4;2.404011009;18.18214139;2.707316699;44;Coteaux
83;5;1.663444055;5.940862848;2.935882401;47;Coteaux
84;5;1.968728368;15.58130896;1.616932803;36;Coteaux
85;6;1.91035979;19.40930748;1.685018376;60;Coteaux
86;5;3.543136356;7.864246004;2.728960821;61;Coteaux
87;8;5.560705712;19.73637456;2.5051596;62;Coteaux
88;4;3.115807709;28.58532634;2.688162709;72;Coteaux
89;6;3.04354894;17.8285088;2.407513337;88;Coteaux
90;4;3.136867719;16.8953616;1.475426339;100;Coteaux
91;5;2.700272241;8.475293737;2.990362168;65;Coteaux
92;10;4.983706584;19.01520949;1.518644291;59;Coteaux
93;8;5.792518942;15.05363089;1.611028193;73;Coteaux
94;6;3.525561806;14.47907409;1.259823282;80;Coteaux
95;5;3.077407101;23.60953164;1.634091868;86;Coteaux
96;9;4.264841532;12.03861822;2.430037887;73;Coteaux
97;8;3.081954126;17.64914117;1.503338994;91;Coteaux
98;7;4.18835056;7.276714009;1.733497518;59;Coteaux
99;6;4.12621075;13.08452047;1.712949608;94;Coteaux
100;4;2.107283618;14.32195073;3.226321393;84;Coteaux
101;6;4.42281864;15.43906604;1.646325539;60;Coteaux
102;6;3.152850383;12.38878216;1.929760764;86;Coteaux
103;6;3.377267542;8.045816727;2.083304624;63;Coteaux
104;5;2.847550983;24.37909625;1.705651927;69;Coteaux
105;8;3.904598586;6.683212695;2.71410737;41;Coteaux
106;4;2.380716241;14.94605117;1.959596709;72;Coteaux
107;6;3.352018304;15.28581251;2.299138649;44;Coteaux
108;6;3.685490896;12.03885756;3.148823466;43;Coteaux
109;6;3.396791824;8.005538247;2.083629861;64;Coteaux
110;8;2.656806761;11.54914605;3.113305024;39;Coteaux
111;4;2.188825858;13.87742208;4.384999362;62;Coteaux
112;3;1.607201115;8.341233725;3.822526022;48;Coteaux
113;4;2.148423421;1.251282857;3.486641986;56;PVDS
114;7;3.026551061;0.649920916;2.849302326;42;PVDS
115;6;3.334234075;1.013645176;5.143687451;63;PVDS
116;7;3.422710857;8.030892613;2.929032603;21;PVDS
117;6;2.284175143;10.07232829;1.869903008;45;PVDS
118;7;2.721601547;4.27466441;2.146799798;36;PVDS
119;6;3.049176443;1.512528648;5.492477381;60;PVDS
120;7;2.740399185;6.590318649;2.26532737;50;PVDS
121;7;4.61479513;3.100565674;2.396865647;65;PVDS
122;8;4.042099242;2.648049112;1.948751644;35;PVDS
123;9;4.452596627;10.07966412;2.608761314;55;PVDS
124;8;1.400740806;0.766682776;2.118656103;43;PVDS
125;7;2.094503782;5.122652278;1.268917013;47;PVDS
126;8;3.335487614;0.454141209;2.422669824;43;PVDS
127;6;2.791204024;24.06752845;1.119356098;81;PVDS
128;7;4.130532445;3.365963531;2.968386827;53;PVDS
129;6;4.030639989;3.951269974;2.301401636;67;PVDS
130;5;2.957008419;1.566277578;4.355338387;60;PVDS
131;9;5.611843723;6.804087248;1.523429162;59;PVDS
132;9;2.76942608;3.308478652;1.389980062;51;PVDS
133;6;2.321670779;0.766229774;1.997388778;63;PVDS
134;8;1.435219518;2.637241596;3.686714582;71;PVDS
135;7;3.663294523;7.125609791;0.949542141;83;PVDS
136;7;1.51813628;3.473110963;4.086785233;60;PVDS
137;10;3.861561211;1.794077471;1.36839993;88;PVDS
138;7;4.927700228;10.20662763;2.084429086;100;PVDS
139;8;3.848383807;1.297728328;5.054014129;35;PVDS
140;8;3.808053998;8.530992745;2.234993043;51;PVDS
141;11;5.508727029;3.423803431;1.656166997;42;PVDS
142;7;2.468967773;1.545629063;2.986032833;59;PVDS
143;7;2.044049929;2.369605762;2.77699502;57;PVDS
144;8;4.720451893;0.691546292;3.123703223;88;PVDS
145;8;3.912941922;3.556034822;0.860684151;58;PVDS
146;9;4.152753118;4.015829863;1.733852625;18;PVDS
147;7;2.048846144;3.361547848;2.149010373;100;PVDS
148;7;3.687856757;4.283238872;1.542201648;83;PVDS
149;8;2.696530544;3.105281173;1.785025475;54;PVDS
150;9;6.839246637;1.187751685;2.905970677;54;PVDS
151;6;3.277245042;1.82318715;4.525517034;50;PVDS
152;5;1.65423202;14.58333032;1.304902425;85;PVDS
153;9;3.03968257;7.177873351;1.548978039;43;PVDS
154;6;2.269016737;2.480422617;1.964733633;83;PVDS
155;9;3.557332821;14.41093388;3.031265637;54;PVDS
156;7;3.184535162;1.977131182;2.126623956;48;PVDS
157;5;1.927933177;16.8059716;2.654291328;16;PVDS
158;7;3.809944644;9.66425949;2.195030266;30;PVDS
159;7;1.700581946;1.146136735;2.978990075;77;PVDS
160;4;2.752936782;9.206488786;3.732710615;28;PVDS
161;4;3.542438178;4.603603111;4.350304402;11;PVDS
162;6;3.825928061;1.947743753;2.935080093;6;PVDS
163;6;4.020131598;2.942839615;2.999805029;14;PVDS
164;7;3.0634304;0.941249329;3.445498752;6;PVDS
165;6;3.62575651;5.644412498;2.151915786;39;PVDS
166;6;3.281875986;3.675551866;2.816253291;65;PVDS
167;8;2.878874606;3.067865119;2.322648321;36;PVDS
168;6;1.84953293;0.22783063;3.407519708;52;PVDS
169;6;4.696161072;7.87773315;1.319895079;23;PVDS
170;10;4.033865187;1.052793909;2.022827487;30;PVDS
171;8;3.922960478;1.472307346;3.867357738;49;PVDS
172;8;4.541624603;5.963044194;1.314718721;17;PVDS
173;7;3.371014826;7.73383041;1.801566651;40;PVDS
174;8;2.234361169;3.038305047;2.890483274;14;PVDS
175;6;3.285290386;0.716804214;2.970434499;17;PVDS
176;6;2.336922889;1.787174899;4.153810091;30;PVDS
177;10;2.547100924;1.932446505;2.859934177;31;PVDS
178;7;2.654713948;12.46139064;2.331517579;67;PVDS
179;10;3.442532563;5.273490093;2.501359844;55;PVDS
180;9;2.390808906;1.711569549;3.925474399;69;PVDS
181;10;4.685438121;1.900977163;2.537179407;32;PVDS
182;12;3.107909821;3.197940602;2.58241936;38;PVDS
183;9;2.302961371;7.854697166;2.130824363;53;PVDS
184;7;4.216310839;1.74127107;2.526799987;16;PVDS
185;9;2.307949739;2.591996672;4.08950915;49;PVDS
186;11;3.554419103;10.16099685;2.195527473;50;PVDS
187;8;3.66710265;1.342683349;2.177820197;17;PVDS
188;7;2.996696981;0.636112893;3.688820131;73;PVDS
189;8;3.49803492;9.717428379;1.978141331;48;PVDS
190;8;3.155893407;6.013177917;1.797717501;52;PVDS
191;6;4.320556417;40.65576976;3.49132543;51;EastAnglia
192;5;3.367103571;10.47028302;3.038256577;11;EastAnglia
193;4;2.222788651;12.44868343;4.561717865;20;EastAnglia
194;2;1.977379676;16.43208885;8.356792096;25;EastAnglia
195;5;2.712253863;12.27237955;4.031526505;35;EastAnglia
196;6;4.468518426;5.97655924;2.38187996;18;EastAnglia
197;6;4.29152826;30.84537915;5.763142174;62;EastAnglia
198;6;2.968398086;17.42040361;3.235496718;58;EastAnglia
199;4;2.092882092;36.53323242;5.751781664;61;EastAnglia
200;3;1.198902931;8.755665982;2.638638053;43;EastAnglia
201;4;1.845248841;15.8208235;3.043845794;64;EastAnglia
202;6;2.138172892;29.03511692;2.705723401;25;EastAnglia
203;3;2.141011248;6.384518348;3.933189369;12;EastAnglia
204;4;3.089263013;9.746304772;2.650560563;2;EastAnglia
205;6;4.882601836;7.601475638;2.956957296;5;EastAnglia
206;2;1.728823514;8.203149126;9.547680451;37;EastAnglia
207;3;1.553244911;23.89662425;6.124959857;46;EastAnglia
208;3;2.98673852;24.87342941;3.515048715;4;EastAnglia
209;3;1.967033163;20.33957374;5.515038977;22;EastAnglia
210;4;2.391446915;6.583832175;2.31069341;19;EastAnglia
211;8;4.318132978;15.34201477;2.22764881;28;EastAnglia
212;3;1.23870337;24.30138095;2.708943797;2;EastAnglia
213;3;1.233417399;8.827480559;2.709056514;29;EastAnglia
214;6;4.070920654;19.49314728;4.333997273;45;EastAnglia
215;5;2.818372685;26.34435831;5.105384495;61;EastAnglia
216;3;1.623409741;22.56331191;2.655281226;29;EastAnglia
217;5;1.961233986;12.8814582;2.046812449;11;EastAnglia
218;4;2.19053517;7.697212462;2.723353336;25;EastAnglia
219;6;1.555029069;12.25446051;3.177454196;49;EastAnglia
220;5;3.235579941;10.29768468;2.771258889;13;EastAnglia
221;4;2.042920978;7.560452397;3.071126549;48;EastAnglia
222;5;1.701388098;6.777885676;4.709970173;60;EastAnglia
223;6;2.599946098;11.28323453;3.548712164;77;EastAnglia
224;3;1.223333271;7.125486354;4.740115573;33;EastAnglia
225;3;1.870070861;5.317378432;8.461219213;51;EastAnglia
226;4;1.320008803;5.309981666;8.508639683;55;EastAnglia
227;3;1.780353427;12.7614659;9.560291555;39;EastAnglia
228;4;2.3280368;4.806260762;5.914865289;52;EastAnglia
229;4;2.115919932;9.270992196;6.966920801;64;EastAnglia
230;5;3.936836322;10.11887674;9.986637488;74;EastAnglia
231;5;3.168622245;11.26172087;9.793050728;53;EastAnglia
232;5;1.591698376;8.87477536;6.429634298;53;EastAnglia
233;4;2.528195959;4.915010538;7.895981219;62;EastAnglia
234;5;2.876627741;6.306316046;4.332167402;36;EastAnglia
235;7;4.522657807;10.09734375;3.635723772;24;EastAnglia
236;4;2.822352295;5.148066778;3.919196819;28;EastAnglia
237;5;2.841853914;10.18179307;2.446461282;63;EastAnglia
238;2;1.194535844;3.924374961;10.45225421;35;EastAnglia
239;5;1.547060322;7.878713368;2.699117483;18;EastAnglia
240;6;2.401402591;8.414749647;3.813275802;73;EastAnglia
241;4;1.566811441;4.742678953;6.846493184;48;EastAnglia
242;4;1.134857921;9.165057563;8.602650702;81;EastAnglia
243;6;1.825104513;8.972361413;5.02793368;41;EastAnglia
244;5;2.802752398;11.09111461;2.926723873;49;EastAnglia
245;6;2.292629061;9.951860202;3.73429837;68;EastAnglia
246;6;3.249397366;8.167300918;3.084813767;80;EastAnglia
247;5;2.547089798;5.112618487;10.53819836;60;EastAnglia
248;4;2.524818122;7.362554746;4.798527179;49;EastAnglia
249;7;4.67895179;6.968942696;3.868572213;67;EastAnglia
250;6;1.915528605;8.244716937;3.310775132;52;EastAnglia
251;4;3.367843588;3.609915638;2.767123836;47;Goettingen
252;4;2.225152688;3.895473477;2.666787012;50;Goettingen
253;4;2.859127933;16.6485419;2.182385458;86;Goettingen
254;5;3.005782632;6.679816372;3.10199907;44;Goettingen
255;7;3.291244687;8.69154927;1.262110705;91;Goettingen
256;4;2.742097481;10.3813621;1.928840136;43;Goettingen
257;6;3.292922459;7.39666652;3.417625247;28;Goettingen
258;4;3.505160612;16.62735699;2.291843326;94;Goettingen
259;5;2.432576215;18.36467196;2.148300242;94;Goettingen
260;5;2.029544951;9.12936741;4.157961976;69;Goettingen
261;5;1.713033722;4.760293887;2.380997617;69;Goettingen
262;5;3.647773403;10.14602653;1.884243387;85;Goettingen
263;7;2.99494343;8.300266381;2.236769434;86;Goettingen
264;6;2.14300194;21.26616999;1.831023725;46;Goettingen
265;4;3.032743569;7.362059149;3.240011275;46;Goettingen
266;3;1.889943734;16.16487509;4.65751028;54;Goettingen
267;6;3.00767146;9.520292801;2.78988912;70;Goettingen
268;6;3.206803251;17.17184001;2.057204698;69;Goettingen
269;4;1.98158258;13.68278015;1.556612819;63;Goettingen
270;5;1.981623209;6.943623995;1.970328044;47;Goettingen
271;5;2.122495221;3.393153922;3.886336249;27;Goettingen
272;8;3.509132955;7.341325503;2.216056447;37;Goettingen
273;5;3.018301223;9.181860658;3.929026358;66;Goettingen
274;5;2.778564843;14.71318718;3.470181144;73;Goettingen
275;4;1.751716255;6.109493576;2.026821962;78;Goettingen
276;5;2.550112553;12.67133458;3.233732104;86;Goettingen
277;5;2.694860812;5.582839926;2.040678843;62;Goettingen
278;5;1.886085867;5.977441289;1.765599725;80;Goettingen
279;4;2.437321878;4.600471806;3.077384934;79;Goettingen
280;5;2.625078378;2.539631092;2.884384296;69;Goettingen
281;6;3.060736053;11.61102284;1.662357897;91;Goettingen
282;5;2.146657802;11.11538977;4.232610393;97;Goettingen
283;5;1.755303235;8.304938126;3.280023071;78;Goettingen
284;6;2.783747476;6.124684407;1.564104668;91;Goettingen
285;5;3.000427752;21.21687549;6.30488361;74;Goettingen
286;6;2.133436915;6.117107615;2.20802141;61;Goettingen
287;5;2.72372616;18.41573016;3.019866918;57;Goettingen
288;6;3.282274994;12.61880438;3.949479046;52;Goettingen
289;5;1.927193445;5.394727239;2.095277833;61;Goettingen
290;5;2.248100455;4.637566846;2.299886938;45;Goettingen
291;6;2.454859733;5.248087999;1.478686315;65;Goettingen
292;5;2.222307934;4.338604771;3.575933823;47;Goettingen
293;7;2.677915792;15.44961957;1.569975264;100;Goettingen
294;5;2.13564807;6.710198817;1.579891219;49;Goettingen
295;4;2.832025262;4.510253054;5.170946934;60;Goettingen
296;7;2.759147273;4.655516411;1.913536541;71;Goettingen
297;4;2.065908531;8.987180678;1.462832296;85;Goettingen
298;4;2.761802852;9.352969738;4.022603635;64;Goettingen
299;7;3.284972537;13.43740046;2.256526359;24;Goettingen
300;4;2.015051262;13.32041764;3.244969089;71;Goettingen
301;5;1.673766129;3.435693728;3.961730881;58;Goettingen
302;4;3.197154899;7.686624519;1.472676048;62;Goettingen
303;3;1.01726666;7.686279818;1.520081508;65;Lleida
304;4;1.325797234;17.81020411;1.521849922;16;Lleida
305;2;1.082080716;8.832616412;1.545164979;61;Lleida
306;3;1.027162489;8.737496924;1.724732352;23;Lleida
307;2;1.011846073;14.53180277;1.075032789;49;Lleida
308;6;1.731887808;7.828739251;0.687015834;49;Lleida
309;3;1.049274583;25.50971366;0.769070751;46;Lleida
310;3;1.0063789;19.68059992;2.335012804;6;Lleida
311;6;1.214709706;10.35238704;0.478387304;52;Lleida
312;1;1;18.71793982;0.912989735;46;Lleida
313;3;1.174484047;6.860030876;2.832020814;41;Lleida
314;5;1.585252284;8.059281733;1.265218419;48;Lleida
315;5;1.219897654;12.31851363;1.270991143;45;Lleida
316;6;2.214007085;13.38607103;0.909858337;84;Lleida
317;6;2.23060792;11.52140583;1.495269136;25;Lleida
318;4;1.49391617;9.956308016;1.772918663;70;Lleida
319;5;2.527635386;13.82686286;1.168524247;53;Lleida
320;4;1.312067847;15.9961814;0.753507725;51;Lleida
321;5;1.220585992;18.63909178;0.689533224;66;Lleida
322;1;1;17.07080634;1.1169518;63;Lleida
323;6;1.412597111;7.770873766;0.5455892;84;Lleida
324;4;2.375543137;28.15963386;0.810989231;22;Lleida
325;6;1.58949789;22.18682465;0.793731256;83;Lleida
326;5;1.943726989;12.66439001;0.659718219;62;Lleida
327;6;2.822164252;8.992669391;0.850376626;70;Lleida
328;2;1.012056017;21.65485197;1.632307183;56;Lleida
329;3;1.625966135;24.42135886;0.856481097;81;Lleida
330;2;1.020082437;22.49571581;1.156758264;50;Lleida
331;4;1.191233331;27.39700019;1.083022189;53;Lleida
332;5;2.389950632;10.65669854;0.688412516;52;Lleida
333;4;1.368230578;4.795243141;1.011892639;71;Lleida
334;5;1.945706033;5.939128977;1.055183357;68;Lleida
335;4;2.644478712;14.10567665;0.799254898;84;Lleida
336;2;1.039028301;11.81106875;1.543242496;66;Lleida
337;4;1.185578137;23.50734114;1.076742939;52;Lleida
338;7;2.12409376;9.581738388;2.154022122;54;Lleida
339;5;2.79690586;8.719516615;0.736661319;49;Lleida
340;5;3.678693645;14.05719608;0.684064492;80;Lleida
341;3;1.055532311;20.68437839;1.727944844;71;Lleida
342;4;3.149022323;33.73731747;0.972301404;85;Lleida
