"Cell ID";"Crop richness";"Simpson reciprocal index";"Semi-natural cover";"Mean Field Size"
1;7;2,70901265043013;13,1612420168455;3,39506986819479
2;4;2,15887810248442;73,8156174089721;2,12663858781869
3;5;2,94946210592578;76,8766829423939;1,33233168794832
4;5;2,03068720949332;15,8958770033603;2,08207797689421
5;5;2,62881120062788;50,9243765325439;1,98459654124542
6;6;3,45084187802264;19,9172538518593;2,10998512039503
7;9;5,76859075574467;9,61647104287772;2,19264525924861
8;6;3,92716521115309;5,69767569300009;3,86854324365529
9;6;3,33075059242245;39,2958654948971;2,68189616670677
10;7;3,63541668160651;58,8783102949024;1,86067631712023
11;7;2,71016172323883;56,9240089549881;2,26458484016773
12;6;2,88632924953218;18,4176809234031;2,89183953227925
13;6;4,23004844846032;6,91585782467062;3,06662949969626
14;7;2,30327537518003;43,3060124543234;1,54696794011725
15;6;3,79613185350023;5,75459208895697;2,91266796029985
16;7;4,2991967854555;17,2119979288312;3,43789502153144
17;6;3,52432219639725;41,7589094823665;2,48784160695
18;7;4,00235683294656;28,531240487381;2,72051455080076
19;6;3,43827840243983;31,2436328665611;3,06151669961267
20;6;3,42994150579385;37,8058057904703;4,05616694158158
21;6;4,46165083474406;10,155652006565;3,54680175739249
22;7;3,83912458903321;27,6298578534926;2,29500793589406
23;7;3,30762358473457;19,2292232142193;2,63136739541264
24;7;3,04809687349184;21,7164123523768;2,66213732091379
25;8;4,17104449816281;22,7693162842435;3,3105865988435
26;6;3,23278726984142;28,7498902809511;2,33651717946153
27;6;3,58590098514783;32,3748211427928;2,49054696347896
28;6;2,74144931571261;42,0849542888677;3,45297386018159
29;4;3,12887357775661;33,2634881599629;3,63036964441235
30;3;2,0341017207924;58,5868302425153;2,26473065321738
31;6;3,16890721783512;30,4253582738662;2,12828270970132
32;5;3,97752981121434;14,2307230185265;2,43720177805178
33;6;2,45453090229943;59,7466632105457;2,36948079934722
34;8;5,89371292672331;52,9445227851057;1,940140781518
35;9;6,16878656229879;61,8157932343303;1,70042904323986
36;7;3,60601124437877;29,3684955883422;3,51560195426565
37;5;2,42937442251151;17,9789446560648;3,23688886578407
38;6;2,81194935969508;28,7154732314174;3,03693196489484
39;7;4,09662103087318;9,45167985924327;3,50409274938539
40;8;4,3852299927748;10,9960338855003;2,01720288034362
41;7;2,7013596732148;27,6252223031839;2,69570139412493
42;5;2,14804499459782;45,0462175811088;2,31252873842522
43;5;3,60364781698361;53,7414007515531;3,41112909968189
44;7;3,51929753926074;18,3024212383932;2,41946543733408
45;7;3,21914278872918;18,1942986934326;4,28631096051486
46;6;3,51347657943299;53,9327948702057;2,13349309735701
47;7;3,26646053448416;38,4493043927405;2,97533417221342
48;9;4,92167250236662;13,4263564407975;2,33513339752447
49;8;5,5402307236946;50,0996062364866;2,48748581238581
50;7;5,10994399017899;50,7796868730284;2,66246325528357
51;7;1,97404613671712;55,0523783280902;3,15707840625043
52;5;3,87800780486501;30,4045069194051;3,02089760717848
53;6;2,24420515706844;72,0812108106125;2,22354740335105
54;6;3,9606713246718;56,7033400587206;2,39554779077509
55;6;3,77432382399195;58,3930930764041;2,06561663335675
56;6;4,72751232565433;42,2639071640621;2,94354325065621
57;7;3,62014535688378;79,2610739541867;1,55920206994957
58;5;3,44169674172402;30,2754967970284;2,99182029291517
59;5;2,34434244825543;20,1562844142548;4,25219062118788
60;6;4,85862734497681;35,5774801055251;2,84858659794745
61;5;2,54120244925385;50,7340579152745;2,62372916732927
62;5;3,49590750431858;50,0306298215114;2,71350743529595
63;5;2,69505808892952;46,2562766975501;2,4948157074227
64;5;2,91127883907608;59,3945280781674;2,00837180882766
65;7;3,82512878066157;56,0025358174222;1,73399251553278
66;6;3,25916723544084;29,2209354330622;3,13416668331516
67;6;1,76796964306294;9,16487056096746;4,05977075756304
68;4;2,9338444441569;20,4049794835657;3,71935451931364
69;6;2,51722797588353;38,2270965475243;1,87112923123942
70;5;4,56534522636292;18,5715708815472;3,22455800589962
71;6;4,4659671516267;22,8718666037538;2,68402146269384
72;6;3,77262426866434;28,2376278619449;2,97259975382388
73;6;3,82795646858716;43,2804994010801;2,67453992558167
74;5;2,56324840694345;40,9408206269303;3,50201250295854
75;6;3,68098033732933;32,73301733567;2,10233165199217
76;9;4,2865638099754;19,9888045174326;2,95543927669162
77;5;3,98059672997352;14,7093068104967;2,92767860020778
78;7;2,82998734878067;20,9942507571237;2,46837157749919
79;5;2,21558688065397;33,8902873185363;2,42458294522067
80;6;5,07120324479135;31,9010057490503;3,04650337985259
